…
``` r
homicide_df = read.csv(text = getURL("https://raw.githubusercontent.com/washingtonpost/data-homicides/master/homicide-data.csv")) %>% 
  unite(city_state, city:state, sep = ", ") %>% 
  janitor::clean_names()

homicide_df_summarized = homicide_df %>% 
  group_by(city_state) %>% 
  summarize(total_homicide = n(),
      unsolved_homicide = sum(disposition == "Closed without arrest") 
      + sum(disposition == "Open/No arrest"))

homicide_df_summarized
```

    ## # A tibble: 51 x 3
    ##    city_state      total_homicide unsolved_homicide
    ##    <chr>                    <int>             <int>
    ##  1 Albuquerque, NM            378               146
    ##  2 Atlanta, GA                973               373
    ##  3 Baltimore, MD             2827              1825
    ##  4 Baton Rouge, LA            424               196
    ##  5 Birmingham, AL             800               347
    ##  6 Boston, MA                 614               310
    ##  7 Buffalo, NY                521               319
    ##  8 Charlotte, NC              687               206
    ##  9 Chicago, IL               5535              4073
    ## 10 Cincinnati, OH             694               309
    ## # ... with 41 more rows
…
